…
``` r
cosOut$cosinor_ts
#> # A tibble: 10,080 × 4
#>    time_across_days     y y_cos y_ext
#>               <dbl> <dbl> <dbl> <dbl>
#>  1           0.0167  2.04  11.1  7.39
#>  2           0.0333  3.89  11.1  7.45
#>  3           0.05    2.22  11.2  7.50
#>  4           0.0667  8.45  11.2  7.56
#>  5           0.0833  6.21  11.3  7.61
#>  6           0.1    11.8   11.3  7.67
#>  7           0.117   2.21  11.4  7.72
#>  8           0.133  14.3   11.4  7.78
#>  9           0.15    3.96  11.4  7.83
#> 10           0.167   4.90  11.5  7.89
#> # ℹ 10,070 more rows
```
…
