…
cosOut$cosinor_ts
#> # A tibble: 10,080 × 4
#>    time_across_days     y y_cos y_ext
#>               <dbl> <dbl> <dbl> <dbl>
#>  1           0.0167 16.0   10.8  7.22
#>  2           0.0333  5.72  10.9  7.27
#>  3           0.05    5.09  10.9  7.33
#>  4           0.0667  5.90  10.9  7.38
#>  5           0.0833  7.70  11.0  7.43
#>  6           0.1    10.3   11.0  7.49
#>  7           0.117   9.81  11.1  7.54
#>  8           0.133   8.32  11.1  7.60
#>  9           0.15    4.71  11.2  7.65
#> 10           0.167   4.19  11.2  7.70
#> # ℹ 10,070 more rows
…
