extendedCosinorVignette
…
cosOut$cosinor_ts
#> # A tibble: 10,080 × 4
#>    time_across_days     y y_cos y_ext
#>               <dbl> <dbl> <dbl> <dbl>
#>  1           0.0167  5.95  11.0  7.38
#>  2           0.0333  7.42  11.0  7.43
#>  3           0.05    8.05  11.1  7.49
#>  4           0.0667  5.26  11.1  7.54
#>  5           0.0833 12.5   11.2  7.60
#>  6           0.1     6.22  11.2  7.65
#>  7           0.117  11.4   11.3  7.71
#>  8           0.133  12.0   11.3  7.76
#>  9           0.15    4.78  11.3  7.82
#> 10           0.167   4.17  11.4  7.88
#> # ℹ 10,070 more rows
…
